…
```r
# Summarise suicide data over time by country, male and female separately
```

```r
sui_country <- suicide_final %>% 
  group_by(country, sex) %>% 
  summarise(mean_sui=mean(sui),
            .groups = 'drop')
print(sui_country, n=50)
```

```
## # A tibble: 630 × 3
##    country             sex        mean_sui
##    <labelled>          <labelled>    <dbl>
##  1 Afghanistan         Both          4.05 
##  2 Afghanistan         Female        3.84 
##  3 Afghanistan         Male          4.23 
##  4 Albania             Both          4.70 
##  5 Albania             Female        3.94 
##  6 Albania             Male          5.44 
##  7 Algeria             Both          2.59 
##  8 Algeria             Female        2.27 
##  9 Algeria             Male          2.89 
## 10 American Samoa      Both          6.4  
## 11 American Samoa      Female        6.4  
## 12 American Samoa      Male          6.4  
## 13 Andorra             Both          9.4  
## 14 Andorra             Female        9.4  
## 15 Andorra             Male          9.4  
## 16 Angola              Both          6.23 
## 17 Angola              Female        4.47 
## 18 Angola              Male          8.03 
## 19 Antigua and Barbuda Both          0.132
## 20 Antigua and Barbuda Female        0.264
## 21 Antigua and Barbuda Male          0    
## 22 Argentina           Both          8.59 
## 23 Argentina           Female        6.17 
## 24 Argentina           Male         11.1  
## 25 Armenia             Both          4.81 
## 26 Armenia             Female        3.85 
## 27 Armenia             Male          5.87 
## 28 Australia           Both         12.5  
## 29 Australia           Female        9.75 
## 30 Australia           Male         15.2  
## 31 Austria             Both         15.6  
## 32 Austria             Female       11.8  
## 33 Austria             Male         19.5  
## 34 Azerbaijan          Both          4.11 
## 35 Azerbaijan          Female        2.98 
## 36 Azerbaijan          Male          5.25 
## 37 Bahamas, The        Both          3.47 
## 38 Bahamas, The        Female        2.44 
## 39 Bahamas, The        Male          4.58 
## 40 Bahrain             Both          7.96 
## 41 Bahrain             Female        5.44 
## 42 Bahrain             Male          9.44 
## 43 Bangladesh          Both          3.56 
## 44 Bangladesh          Female        2.75 
## 45 Bangladesh          Male          4.35 
## 46 Barbados            Both          0.582
## 47 Barbados            Female        0.459
## 48 Barbados            Male          0.714
## 49 Belarus             Both         24.0  
## 50 Belarus             Female       16.8  
## # … with 580 more rows
```
…
# Sorting

sui_country_time_sorted <- sui_country_time[order(sui_country_time$mean_sui, decreasing = TRUE),]
print(sui_country_time_sorted, n = 20)
```

```
## # A tibble: 630 × 3
##    country               sex        mean_sui
##    <labelled>            <labelled>    <dbl>
##  1 Lesotho               Male          102. 
##  2 Lesotho               Both           79.8
##  3 Lesotho               Female         58.3
##  4 Guyana                Male           48.3
##  5 Eswatini              Male           45.4
##  6 Lithuania             Male           42.2
##  7 Korea, Rep.           Male           40.0
##  8 Russian Federation    Male           39.7
##  9 Kiribati              Male           38.8
## 10 Guyana                Both           38.4
## 11 Micronesia, Fed. Sts. Male           33.8
## 12 Eswatini              Both           33.0
## 13 Belarus               Male           32.2
## 14 Lithuania             Both           31.3
## 15 Suriname              Male           31.1
## 16 South Africa          Male           30.5
## 17 Ukraine               Male           29.9
## 18 Russian Federation    Both           29.6
## 19 Kiribati              Both           29.4
## 20 Korea, Rep.           Both           28.5
## # … with 610 more rows
```
…
